%YAML 1.1
%TAG !u! tag:unity3d.com,2011:
--- !u!78 &1
TagManager:
  serializedVersion: 2
  tags:
  - ItemReceiver
  - ItemSender
  - Purchasable
  - Points
  layers:
  - Default
  - TransparentFX
  - Ignore Raycast
  - Character
  - Water
  - UI
  - Ground
  - Collectable
  - 
  - 
  - 
  - 
  - 
  - 
  - 
  - 
  - 
  - 
  - 
  - 
  - 
  - 
  - 
  - 
  - 
  - 
  - 
  - 
  - 
  - 
  - 
  - 
  m_SortingLayers:
  - name: Default
    uniqueID: 0
    locked: 0
