%YAML 1.1
%TAG !u! tag:unity3d.com,2011:
--- !u!162 &1
EditorUserSettings:
  m_ObjectHideFlags: 0
  serializedVersion: 4
  m_ConfigSettings:
    RecentlyUsedScenePath-0:
      value: 224247031146467c0c03096d23205a1e1304570d2d25237e38271427fb
      flags: 0
    RecentlyUsedScenePath-1:
      value: 224247031146467c0c03096d23205a1e130457072d2128032e2c1336acf53a31f6fe
      flags: 0
    RecentlyUsedScenePath-2:
      value: 22424703114646680e0b0227036c72111f192b292926237e38271427fb
      flags: 0
    vcSharedLogLevel:
      value: 0d5e400f0650
      flags: 0
  m_VCAutomaticAdd: 1
  m_VCDebugCom: 0
  m_VCDebugCmd: 0
  m_VCDebugOut: 0
  m_SemanticMergeMode: 2
  m_VCShowFailedCheckout: 1
  m_VCOverwriteFailedCheckoutAssets: 1
  m_VCProjectOverlayIcons: 1
  m_VCHierarchyOverlayIcons: 1
  m_VCOtherOverlayIcons: 1
  m_VCAllowAsyncUpdate: 1
